; Engine configuration file.
; It's best edited using the editor UI and not directly,
; since the parameters that go here are not all obvious.
;
; Format:
;   [section] ; section goes between []
;   param=value ; assign values to parameters

config_version=4

_global_script_classes=[  ]
_global_script_class_icons={

}

[application]

config/name="Blazing Escape Trijam"
run/main_scene="res://scenes/Game.tscn"
config/icon="res://icon.png"

[autoload]

Globals="*res://scripts/Globals.gd"

[display]

window/size/fullscreen=true
window/stretch/mode="2d"
window/stretch/aspect="keep_width"

[input]

Jump={
"deadzone": 0.5,
"events": [ Object(InputEventKey,"resource_local_to_scene":false,"resource_name":"","device":0,"alt":false,"shift":false,"control":false,"meta":false,"command":false,"pressed":false,"scancode":32,"unicode":0,"echo":false,"script":null)
, Object(InputEventKey,"resource_local_to_scene":false,"resource_name":"","device":0,"alt":false,"shift":false,"control":false,"meta":false,"command":false,"pressed":false,"scancode":87,"unicode":0,"echo":false,"script":null)
, Object(InputEventKey,"resource_local_to_scene":false,"resource_name":"","device":0,"alt":false,"shift":false,"control":false,"meta":false,"command":false,"pressed":false,"scancode":90,"unicode":0,"echo":false,"script":null)
, Object(InputEventJoypadButton,"resource_local_to_scene":false,"resource_name":"","device":0,"button_index":0,"pressure":0.0,"pressed":false,"script":null)
, Object(InputEventJoypadMotion,"resource_local_to_scene":false,"resource_name":"","device":0,"axis":1,"axis_value":-1.0,"script":null)
, Object(InputEventJoypadButton,"resource_local_to_scene":false,"resource_name":"","device":0,"button_index":12,"pressure":0.0,"pressed":false,"script":null)
 ]
}
Left={
"deadzone": 0.5,
"events": [ Object(InputEventKey,"resource_local_to_scene":false,"resource_name":"","device":0,"alt":false,"shift":false,"control":false,"meta":false,"command":false,"pressed":false,"scancode":16777231,"unicode":0,"echo":false,"script":null)
, Object(InputEventKey,"resource_local_to_scene":false,"resource_name":"","device":0,"alt":false,"shift":false,"control":false,"meta":false,"command":false,"pressed":false,"scancode":65,"unicode":0,"echo":false,"script":null)
, Object(InputEventKey,"resource_local_to_scene":false,"resource_name":"","device":0,"alt":false,"shift":false,"control":false,"meta":false,"command":false,"pressed":false,"scancode":81,"unicode":0,"echo":false,"script":null)
, Object(InputEventJoypadButton,"resource_local_to_scene":false,"resource_name":"","device":0,"button_index":14,"pressure":0.0,"pressed":false,"script":null)
, Object(InputEventJoypadMotion,"resource_local_to_scene":false,"resource_name":"","device":0,"axis":0,"axis_value":-1.0,"script":null)
 ]
}
Right={
"deadzone": 0.5,
"events": [ Object(InputEventKey,"resource_local_to_scene":false,"resource_name":"","device":0,"alt":false,"shift":false,"control":false,"meta":false,"command":false,"pressed":false,"scancode":16777233,"unicode":0,"echo":false,"script":null)
, Object(InputEventKey,"resource_local_to_scene":false,"resource_name":"","device":0,"alt":false,"shift":false,"control":false,"meta":false,"command":false,"pressed":false,"scancode":68,"unicode":0,"echo":false,"script":null)
, Object(InputEventJoypadButton,"resource_local_to_scene":false,"resource_name":"","device":0,"button_index":15,"pressure":0.0,"pressed":false,"script":null)
, Object(InputEventJoypadMotion,"resource_local_to_scene":false,"resource_name":"","device":0,"axis":0,"axis_value":1.0,"script":null)
 ]
}

[rendering]

quality/driver/driver_name="GLES2"
vram_compression/import_etc=true
vram_compression/import_etc2=false
environment/default_environment="res://default_env.tres"
